{
  "signIn": {
    "$url": "/sign_in"
  },
  "signUp": {
    "$url": "/sign_up"
  },
  "user": {
    "$url": "/user",
    "boughtItems": {
      "$url": "/user/bought_items",
      "all": {
        "$url": "/user/bought_items?collectionType=all"
      },
      "pendingConfirming": {
        "$url": "/user/bought_items?collectionType=pendingConfirming"
      },
      "pendingDelivery": {
        "$url": "/user/bought_items?collectionType=pendingDelivery"
      },
      "pendingPayment": {
        "$url": "/user/bought_items?collectionType=pendingPayment"
      },
      "pendingEvaluating": {
        "$url": "/user/bought_items?collectionType=pendingEvaluating"
      }
    },
    "collectedItems": {
      "$url": "/user/collected_items"
    },
    "collectionList": {
      "$url": "/user/collection_list"
    },
    "purchasedShop": {
      "$url": "/user/purchased_shop"
    },
    "footstep": {
      "$url": "/user/footstep"
    },
    "collectedShop": {
      "$url": "/user/collected_shop"
    },
    "soldItems": {
      "$url": "/user/sold_items"
    }
  },
  "downloadMobile": {
    "$url": "/download_mobile"
  },
  "marketList": {
    "$url": "/market_list"
  },
  "sellerCenter": {
    "$url": "/seller_center"
  },
  "contactService": {
    "$url": "/contact_service"
  },
  "sitemap": {
    "$url": "/sitemap"
  },
  "openShop": {
    "$url": "/open_shop"
  },
  "customerService": {
    "$url": "/customer_service"
  },
  "sellerService": {
    "$url": "/seller_service"
  },
  "order": {
    "$url": "/order"
  },
  "search": {
    "$url": "/search"
  },
  "item": {
    "$url": "/item"
  },
  "orderDraft": {
    "$url": "/order_draft"
  },
  "shoppingCart": {
    "$url": "/shopping_cart"
  },
  "payment": {
    "$url": "/payment"
  }
}
